Common/utils/make_testbench/test/test.vcd
$date
	Thu Oct 28 10:39:49 2021
$end
$version
	GTKWave Analyzer v3.3.111 (w)1999-2020 BSI
$end
$timescale
	1ps
$end
$scope module TOP $end
$scope module top $end
$scope module FiFo_inst $end
$var wire 1 ( FULL $end
$var wire 32 $ FIFO_DEPTH[31:0] $end
$var wire 1 # nCLR $end
$var wire 1 ) nRE $end
$var wire 1 + EMPTY $end
$var wire 1 & nWE $end
$var wire 32 % DATA_WIDTH[31:0] $end
$var wire 1 " CLK $end
$var wire 32 ' DIN[31:0] $end
$var wire 32 * DOUT[31:0] $end
$upscope $end
$upscope $end
$upscope $end
$enddefinitions $end
#0
$dumpvars
b100000 %
0+
1)
0(
b10 $
b1111101011010111001100001011100 '
0"
0&
b10110100101100011010100100001101 *
0#
$end
#5000
b0 '
1+
b10110011001001100101111100110111 *
1"
1&
#10000
0"
#15000
1"
#20000
0"
#25000
1"
#30000
0"
#35000
1"
#40000
0"
#45000
1"
#50000
0"
#55000
1"
#60000
0"
#65000
1"
#70000
0"
#75000
1"
b1 '
1#
#80000
0"
#85000
1"
b10 '
#90000
0"
#95000
1"
b11 '
0&
#100000
0"
#105000
1"
b100 '
0+
b11 *
#110000
0"
#115000
1"
b101 '
#120000
0"
#125000
1"
b110 '
#130000
0"
#135000
1"
1(
b111 '
#140000
0"
#145000
1"
b1000 '
1&
#150000
0"
#155000
1"
b1001 '
#160000
0"
#165000
1"
b1010 '
0)
#170000
0"
#175000
1"
b1011 '
0(
b100 *
#180000
0"
#185000
1"
b101 *
b1100 '
#190000
0"
#195000
1"
b1101 '
b110 *
#200000
0"
#205000
1"
b11 *
b1110 '
1+
#210000
0"
#215000
1"
b1111 '
#220000
0"
#225000
1"
1)
b10000 '
#230000
0"
#235000
1"
b10001 '
#240000
0"
#245000
1"
b10010 '
0&
#250000
0"
#255000
1"
1&
0+
b10011 '
0)
b10010 *
#260000
0"
#265000
1"
b100 *
1+
b10100 '
#270000
0"
#275000
1"
b10101 '
1)
#280000
0"
#285000
1"
b10110 '
#290000
0"
#295000
1"
b10111 '
#300000
0"
#305000
1"
b11000 '
#310000
0"
#315000
1"
b11001 '
#320000
0"
#325000
1"
b11010 '
#330000
0"
#335000
1"
b11011 '
#340000
0"
#345000
1"
b11100 '
#350000
0"
#355000
1"
b11101 '
#360000
0"
#365000
1"
b11110 '
#370000
0"
#375000
1"
b11111 '
#380000
0"
#385000
1"
b100000 '
#390000
0"
#395000
1"
b100001 '
#400000
0"
#405000
1"
b100010 '
#410000
0"
#415000
1"
b100011 '
#420000
0"
#425000
1"
b100100 '
